Modeling Data: classification, model performance
…
---

## Predict outcome on the testing dataset

```r
predict(email_fit, test_data)
```

```
## # A tibble: 784 x 1
##   .pred_class
##   <fct>      
## 1 0          
## 2 0          
## 3 0          
## 4 0          
## 5 0          
## 6 0          
## # … with 778 more rows
```

---

## Predict probabilities on the testing dataset

```r
email_pred <- predict(email_fit, test_data, type = "prob") %>%
  bind_cols(test_data %>% select(spam, time))

email_pred
```

```
## # A tibble: 784 x 4
##   .pred_0 .pred_1 spam  time               
##     <dbl>   <dbl> <fct> <dttm>             
## 1   0.942 0.0581  0     2012-01-01 11:00:32
## 2   0.920 0.0804  0     2012-01-01 13:12:00
## 3   0.904 0.0960  0     2012-01-01 13:23:44
## 4   0.997 0.00304 0     2012-01-01 19:54:46
## 5   0.833 0.167   0     2012-01-01 20:58:14
## 6   0.849 0.151   0     2012-01-01 21:05:45
## # … with 778 more rows
```

---

## A closer look at predictions

.pull-left-wide[

```r
email_pred %>%
  arrange(desc(.pred_1)) %>%
  print(n = 10)
```

```
## # A tibble: 784 x 4
##    .pred_0 .pred_1 spam  time               
##      <dbl>   <dbl> <fct> <dttm>             
##  1  0.0381   0.962 1     2012-03-27 01:17:01
##  2  0.205    0.795 1     2012-02-21 03:34:56
*##  3  0.408    0.592 0     2012-02-03 08:25:39
##  4  0.412    0.588 1     2012-03-10 17:43:58
##  5  0.448    0.552 1     2012-02-14 14:45:19
##  6  0.462    0.538 1     2012-02-04 10:54:23
*##  7  0.469    0.531 0     2012-01-11 21:00:16
##  8  0.472    0.528 1     2012-01-25 11:17:54
##  9  0.477    0.523 1     2012-03-20 22:00:30
## 10  0.486    0.514 1     2012-03-16 17:39:28
## # … with 774 more rows
```
…
---

## Make predictions for test data

```r
email_pred <- predict(email_fit, test_data, type = "prob") %>% 
  bind_cols(test_data) 

email_pred
```

```
## # A tibble: 784 x 23
##   .pred_0 .pred_1 spam  to_multiple  from    cc sent_email
##     <dbl>   <dbl> <fct>       <dbl> <dbl> <int>      <dbl>
## 1   0.962 0.0378  0               0     1     0          0
## 2   0.940 0.0595  0               0     1     0          0
## 3   0.928 0.0720  0               0     1     0          1
## 4   0.998 0.00180 0               0     1     2          0
## 5   0.881 0.119   0               0     1     0          0
## 6   0.889 0.111   0               0     1     0          0
## # … with 778 more rows, and 16 more variables: time <dttm>,
## #   image <dbl>, attach <dbl>, dollar <dbl>, winner <fct>,
## #   inherit <dbl>, viagra <dbl>, password <dbl>, num_char <dbl>,
## #   line_breaks <int>, format <dbl>, re_subj <dbl>,
## #   exclaim_subj <dbl>, urgent_subj <dbl>, exclaim_mess <dbl>,
## #   number <fct>
```
…
background-image: url("img/the-office.jpeg")
class: middle

---

## Data

```r
office_ratings <- read_csv("data/office_ratings.csv")
office_ratings
```

```
## # A tibble: 188 x 6
##   season episode title         imdb_rating total_votes air_date  
##    <dbl>   <dbl> <chr>               <dbl>       <dbl> <date>    
## 1      1       1 Pilot                 7.6        3706 2005-03-24
## 2      1       2 Diversity Day         8.3        3566 2005-03-29
## 3      1       3 Health Care           7.9        2983 2005-04-05
## 4      1       4 The Alliance          8.1        2886 2005-04-12
## 5      1       5 Basketball            8.4        3179 2005-04-19
## 6      1       6 Hot Girl              7.8        2852 2005-04-26
## # … with 182 more rows
```
…
# Evaluate model

---

## Make predictions for training data

```r
office_train_pred <- predict(office_fit, office_train) %>%
  bind_cols(office_train %>% select(imdb_rating, title))

office_train_pred
```

```
## # A tibble: 141 x 3
##   .pred imdb_rating title        
##   <dbl>       <dbl> <chr>        
## 1  8.48         7.6 Pilot        
## 2  8.45         8.3 Diversity Day
## 3  8.10         8.1 The Alliance 
## 4  8.30         8.4 Basketball   
## 5  8.18         7.8 Hot Girl     
## 6  8.90         8.7 The Dundies  
## # … with 135 more rows
```
…
---

## Make predictions for testing data

```r
office_test_pred <- predict(office_fit, office_test) %>%
  bind_cols(office_test %>% select(imdb_rating, title))

office_test_pred
```

```
## # A tibble: 47 x 3
##   .pred imdb_rating title             
##   <dbl>       <dbl> <chr>             
## 1  8.11         7.9 Health Care       
## 2  8.68         8.2 Halloween         
## 3  8.36         8.3 The Secret        
## 4  8.56         8.1 Michael's Birthday
## 5  8.47         8   Grief Counseling  
## 6  8.49         8.2 Initiation        
## # … with 41 more rows
```
…
---

## Sample

Fifteen 3 BR flats in Edinburgh were randomly selected on rightmove.co.uk.

```r
library(tidyverse)
edi_3br <- read_csv2("data/edi-3br.csv") # ; separated
```

.small[

```
## # A tibble: 15 x 4
##   flat_id  rent title               address                      
##   <chr>   <dbl> <chr>               <chr>                        
## 1 flat_01   825 3 bedroom apartmen… Burnhead Grove, Edinburgh, M…
## 2 flat_02  2400 3 bedroom flat to … Simpson Loan, Quartermile, E…
## 3 flat_03  1900 3 bedroom flat to … FETTES ROW, NEW TOWN, EH3 6SE
## 4 flat_04  1500 3 bedroom apartmen… Eyre Crescent, Edinburgh, Mi…
## 5 flat_05  3250 3 bedroom flat to … Walker Street, Edinburgh     
## 6 flat_06  2145 3 bedroom flat to … George Street, City Centre, …
## # … with 9 more rows
```
…
---

## The bootstrap sample

.question[
How many observations are there in `boot_df`? What does each observation represent?
]

```r
boot_df
```

```
## # A tibble: 15,000 x 2
##   replicate  stat
##       <int> <dbl>
## 1         1 2285 
## 2         2 1890 
## 3         3 1822.
## 4         4 1939.
## 5         5 2106.
## 6         6 2035 
## # … with 14,994 more rows
```
…
